dump.vcd
$date
	Mon Sep 25 21:44:35 2023
$end
$version
	QuestaSim Version 10.6c
$end
$timescale
	1ns
$end

$scope module uvm_root $end
$upscope $end

$scope module fifo_top $end
$var reg 1 ! clk $end
$var reg 1 " reset $end

$scope module dut $end
$var parameter 32 # DATA_W $end
$var parameter 32 $ DEPTH $end
$var parameter 32 % UPP_TH $end
$var parameter 32 & LOW_TH $end
$var wire 1 ' clk $end
$var wire 1 ( rstn $end
$var wire 1 ) i_wren $end
$var wire 1 * i_wrdata [127] $end
$var wire 1 + i_wrdata [126] $end
$var wire 1 , i_wrdata [125] $end
$var wire 1 - i_wrdata [124] $end
$var wire 1 . i_wrdata [123] $end
$var wire 1 / i_wrdata [122] $end
$var wire 1 0 i_wrdata [121] $end
$var wire 1 1 i_wrdata [120] $end
$var wire 1 2 i_wrdata [119] $end
$var wire 1 3 i_wrdata [118] $end
$var wire 1 4 i_wrdata [117] $end
$var wire 1 5 i_wrdata [116] $end
$var wire 1 6 i_wrdata [115] $end
$var wire 1 7 i_wrdata [114] $end
$var wire 1 8 i_wrdata [113] $end
$var wire 1 9 i_wrdata [112] $end
$var wire 1 : i_wrdata [111] $end
$var wire 1 ; i_wrdata [110] $end
$var wire 1 < i_wrdata [109] $end
$var wire 1 = i_wrdata [108] $end
$var wire 1 > i_wrdata [107] $end
$var wire 1 ? i_wrdata [106] $end
$var wire 1 @ i_wrdata [105] $end
$var wire 1 A i_wrdata [104] $end
$var wire 1 B i_wrdata [103] $end
$var wire 1 C i_wrdata [102] $end
$var wire 1 D i_wrdata [101] $end
$var wire 1 E i_wrdata [100] $end
$var wire 1 F i_wrdata [99] $end
$var wire 1 G i_wrdata [98] $end
$var wire 1 H i_wrdata [97] $end
$var wire 1 I i_wrdata [96] $end
$var wire 1 J i_wrdata [95] $end
$var wire 1 K i_wrdata [94] $end
$var wire 1 L i_wrdata [93] $end
$var wire 1 M i_wrdata [92] $end
$var wire 1 N i_wrdata [91] $end
$var wire 1 O i_wrdata [90] $end
$var wire 1 P i_wrdata [89] $end
$var wire 1 Q i_wrdata [88] $end
$var wire 1 R i_wrdata [87] $end
$var wire 1 S i_wrdata [86] $end
$var wire 1 T i_wrdata [85] $end
$var wire 1 U i_wrdata [84] $end
$var wire 1 V i_wrdata [83] $end
$var wire 1 W i_wrdata [82] $end
$var wire 1 X i_wrdata [81] $end
$var wire 1 Y i_wrdata [80] $end
$var wire 1 Z i_wrdata [79] $end
$var wire 1 [ i_wrdata [78] $end
$var wire 1 \ i_wrdata [77] $end
$var wire 1 ] i_wrdata [76] $end
$var wire 1 ^ i_wrdata [75] $end
$var wire 1 _ i_wrdata [74] $end
$var wire 1 ` i_wrdata [73] $end
$var wire 1 a i_wrdata [72] $end
$var wire 1 b i_wrdata [71] $end
$var wire 1 c i_wrdata [70] $end
$var wire 1 d i_wrdata [69] $end
$var wire 1 e i_wrdata [68] $end
$var wire 1 f i_wrdata [67] $end
$var wire 1 g i_wrdata [66] $end
$var wire 1 h i_wrdata [65] $end
$var wire 1 i i_wrdata [64] $end
$var wire 1 j i_wrdata [63] $end
$var wire 1 k i_wrdata [62] $end
$var wire 1 l i_wrdata [61] $end
$var wire 1 m i_wrdata [60] $end
$var wire 1 n i_wrdata [59] $end
$var wire 1 o i_wrdata [58] $end
$var wire 1 p i_wrdata [57] $end
$var wire 1 q i_wrdata [56] $end
$var wire 1 r i_wrdata [55] $end
$var wire 1 s i_wrdata [54] $end
$var wire 1 t i_wrdata [53] $end
$var wire 1 u i_wrdata [52] $end
$var wire 1 v i_wrdata [51] $end
$var wire 1 w i_wrdata [50] $end
$var wire 1 x i_wrdata [49] $end
$var wire 1 y i_wrdata [48] $end
$var wire 1 z i_wrdata [47] $end
$var wire 1 { i_wrdata [46] $end
$var wire 1 | i_wrdata [45] $end
$var wire 1 } i_wrdata [44] $end
$var wire 1 ~ i_wrdata [43] $end
$var wire 1 !! i_wrdata [42] $end
$var wire 1 "! i_wrdata [41] $end
$var wire 1 #! i_wrdata [40] $end
$var wire 1 $! i_wrdata [39] $end
$var wire 1 %! i_wrdata [38] $end
$var wire 1 &! i_wrdata [37] $end
$var wire 1 '! i_wrdata [36] $end
$var wire 1 (! i_wrdata [35] $end
$var wire 1 )! i_wrdata [34] $end
$var wire 1 *! i_wrdata [33] $end
$var wire 1 +! i_wrdata [32] $end
$var wire 1 ,! i_wrdata [31] $end
$var wire 1 -! i_wrdata [30] $end
$var wire 1 .! i_wrdata [29] $end
$var wire 1 /! i_wrdata [28] $end
$var wire 1 0! i_wrdata [27] $end
$var wire 1 1! i_wrdata [26] $end
$var wire 1 2! i_wrdata [25] $end
$var wire 1 3! i_wrdata [24] $end
$var wire 1 4! i_wrdata [23] $end
$var wire 1 5! i_wrdata [22] $end
$var wire 1 6! i_wrdata [21] $end
$var wire 1 7! i_wrdata [20] $end
$var wire 1 8! i_wrdata [19] $end
$var wire 1 9! i_wrdata [18] $end
$var wire 1 :! i_wrdata [17] $end
$var wire 1 ;! i_wrdata [16] $end
$var wire 1 <! i_wrdata [15] $end
$var wire 1 =! i_wrdata [14] $end
$var wire 1 >! i_wrdata [13] $end
$var wire 1 ?! i_wrdata [12] $end
$var wire 1 @! i_wrdata [11] $end
$var wire 1 A! i_wrdata [10] $end
$var wire 1 B! i_wrdata [9] $end
$var wire 1 C! i_wrdata [8] $end
$var wire 1 D! i_wrdata [7] $end
$var wire 1 E! i_wrdata [6] $end
$var wire 1 F! i_wrdata [5] $end
$var wire 1 G! i_wrdata [4] $end
$var wire 1 H! i_wrdata [3] $end
$var wire 1 I! i_wrdata [2] $end
$var wire 1 J! i_wrdata [1] $end
$var wire 1 K! i_wrdata [0] $end
$var wire 1 L! o_alm_full $end
$var wire 1 M! o_full $end
$var wire 1 N! i_rden $end
$var wire 1 O! o_rddata [127] $end
$var wire 1 P! o_rddata [126] $end
$var wire 1 Q! o_rddata [125] $end
$var wire 1 R! o_rddata [124] $end
$var wire 1 S! o_rddata [123] $end
$var wire 1 T! o_rddata [122] $end
$var wire 1 U! o_rddata [121] $end
$var wire 1 V! o_rddata [120] $end
$var wire 1 W! o_rddata [119] $end
$var wire 1 X! o_rddata [118] $end
$var wire 1 Y! o_rddata [117] $end
$var wire 1 Z! o_rddata [116] $end
$var wire 1 [! o_rddata [115] $end
$var wire 1 \! o_rddata [114] $end
$var wire 1 ]! o_rddata [113] $end
$var wire 1 ^! o_rddata [112] $end
$var wire 1 _! o_rddata [111] $end
$var wire 1 `! o_rddata [110] $end
$var wire 1 a! o_rddata [109] $end
$var wire 1 b! o_rddata [108] $end
$var wire 1 c! o_rddata [107] $end
$var wire 1 d! o_rddata [106] $end
$var wire 1 e! o_rddata [105] $end
$var wire 1 f! o_rddata [104] $end
$var wire 1 g! o_rddata [103] $end
$var wire 1 h! o_rddata [102] $end
$var wire 1 i! o_rddata [101] $end
$var wire 1 j! o_rddata [100] $end
$var wire 1 k! o_rddata [99] $end
$var wire 1 l! o_rddata [98] $end
$var wire 1 m! o_rddata [97] $end
$var wire 1 n! o_rddata [96] $end
$var wire 1 o! o_rddata [95] $end
$var wire 1 p! o_rddata [94] $end
$var wire 1 q! o_rddata [93] $end
$var wire 1 r! o_rddata [92] $end
$var wire 1 s! o_rddata [91] $end
$var wire 1 t! o_rddata [90] $end
$var wire 1 u! o_rddata [89] $end
$var wire 1 v! o_rddata [88] $end
$var wire 1 w! o_rddata [87] $end
$var wire 1 x! o_rddata [86] $end
$var wire 1 y! o_rddata [85] $end
$var wire 1 z! o_rddata [84] $end
$var wire 1 {! o_rddata [83] $end
$var wire 1 |! o_rddata [82] $end
$var wire 1 }! o_rddata [81] $end
$var wire 1 ~! o_rddata [80] $end
$var wire 1 !" o_rddata [79] $end
$var wire 1 "" o_rddata [78] $end
$var wire 1 #" o_rddata [77] $end
$var wire 1 $" o_rddata [76] $end
$var wire 1 %" o_rddata [75] $end
$var wire 1 &" o_rddata [74] $end
$var wire 1 '" o_rddata [73] $end
$var wire 1 (" o_rddata [72] $end
$var wire 1 )" o_rddata [71] $end
$var wire 1 *" o_rddata [70] $end
$var wire 1 +" o_rddata [69] $end
$var wire 1 ," o_rddata [68] $end
$var wire 1 -" o_rddata [67] $end
$var wire 1 ." o_rddata [66] $end
$var wire 1 /" o_rddata [65] $end
$var wire 1 0" o_rddata [64] $end
$var wire 1 1" o_rddata [63] $end
$var wire 1 2" o_rddata [62] $end
$var wire 1 3" o_rddata [61] $end
$var wire 1 4" o_rddata [60] $end
$var wire 1 5" o_rddata [59] $end
$var wire 1 6" o_rddata [58] $end
$var wire 1 7" o_rddata [57] $end
$var wire 1 8" o_rddata [56] $end
$var wire 1 9" o_rddata [55] $end
$var wire 1 :" o_rddata [54] $end
$var wire 1 ;" o_rddata [53] $end
$var wire 1 <" o_rddata [52] $end
$var wire 1 =" o_rddata [51] $end
$var wire 1 >" o_rddata [50] $end
$var wire 1 ?" o_rddata [49] $end
$var wire 1 @" o_rddata [48] $end
$var wire 1 A" o_rddata [47] $end
$var wire 1 B" o_rddata [46] $end
$var wire 1 C" o_rddata [45] $end
$var wire 1 D" o_rddata [44] $end
$var wire 1 E" o_rddata [43] $end
$var wire 1 F" o_rddata [42] $end
$var wire 1 G" o_rddata [41] $end
$var wire 1 H" o_rddata [40] $end
$var wire 1 I" o_rddata [39] $end
$var wire 1 J" o_rddata [38] $end
$var wire 1 K" o_rddata [37] $end
$var wire 1 L" o_rddata [36] $end
$var wire 1 M" o_rddata [35] $end
$var wire 1 N" o_rddata [34] $end
$var wire 1 O" o_rddata [33] $end
$var wire 1 P" o_rddata [32] $end
$var wire 1 Q" o_rddata [31] $end
$var wire 1 R" o_rddata [30] $end
$var wire 1 S" o_rddata [29] $end
$var wire 1 T" o_rddata [28] $end
$var wire 1 U" o_rddata [27] $end
$var wire 1 V" o_rddata [26] $end
$var wire 1 W" o_rddata [25] $end
$var wire 1 X" o_rddata [24] $end
$var wire 1 Y" o_rddata [23] $end
$var wire 1 Z" o_rddata [22] $end
$var wire 1 [" o_rddata [21] $end
$var wire 1 \" o_rddata [20] $end
$var wire 1 ]" o_rddata [19] $end
$var wire 1 ^" o_rddata [18] $end
$var wire 1 _" o_rddata [17] $end
$var wire 1 `" o_rddata [16] $end
$var wire 1 a" o_rddata [15] $end
$var wire 1 b" o_rddata [14] $end
$var wire 1 c" o_rddata [13] $end
$var wire 1 d" o_rddata [12] $end
$var wire 1 e" o_rddata [11] $end
$var wire 1 f" o_rddata [10] $end
$var wire 1 g" o_rddata [9] $end
$var wire 1 h" o_rddata [8] $end
$var wire 1 i" o_rddata [7] $end
$var wire 1 j" o_rddata [6] $end
$var wire 1 k" o_rddata [5] $end
$var wire 1 l" o_rddata [4] $end
$var wire 1 m" o_rddata [3] $end
$var wire 1 n" o_rddata [2] $end
$var wire 1 o" o_rddata [1] $end
$var wire 1 p" o_rddata [0] $end
$var wire 1 q" o_alm_empty $end
$var wire 1 r" o_empty $end
$var reg 10 s" wrptr_rg [9:0] $end
$var reg 10 t" rdptr_rg [9:0] $end
$var reg 11 u" dcount_rg [10:0] $end
$var reg 1 v" wren_s $end
$var reg 1 w" rden_s $end
$var reg 1 x" full_s $end
$var reg 1 y" empty_s $end
$upscope $end
$upscope $end

$scope begin uvm_pkg $end
$var parameter 32 z" UVM_HDL_MAX_WIDTH $end
$var parameter 32 {" UVM_STREAMBITS $end
$var parameter 32 |" UVM_RADIX $end
$var parameter 32 }" UVM_MACRO_NUMFLAGS $end
$var parameter 32 ~" UVM_DEFAULT $end
$var parameter 32 !# UVM_ALL_ON $end
$var parameter 32 "# UVM_FLAGS_ON $end
$var parameter 32 ## UVM_FLAGS_OFF $end
$var parameter 32 $# UVM_COPY $end
$var parameter 32 %# UVM_NOCOPY $end
$var parameter 32 &# UVM_COMPARE $end
$var parameter 32 '# UVM_NOCOMPARE $end
$var parameter 32 (# UVM_PRINT $end
$var parameter 32 )# UVM_NOPRINT $end
$var parameter 32 *# UVM_RECORD $end
$var parameter 32 +# UVM_NORECORD $end
$var parameter 32 ,# UVM_PACK $end
$var parameter 32 -# UVM_NOPACK $end
$var parameter 32 .# UVM_PHYSICAL $end
$var parameter 32 /# UVM_ABSTRACT $end
$var parameter 32 0# UVM_READONLY $end
$var parameter 32 1# UVM_NODEFPRINT $end
$var parameter 32 2# UVM_MACRO_EXTRAS $end
$var parameter 32 3# UVM_FLAGS $end
$var parameter 32 4# UVM_UNPACK $end
$var parameter 32 5# UVM_CHECK_FIELDS $end
$var parameter 32 6# UVM_END_DATA_EXTRA $end
$var parameter 32 7# UVM_START_FUNCS $end
$var parameter 32 8# UVM_SET $end
$var parameter 32 9# UVM_SETINT $end
$var parameter 32 :# UVM_SETOBJ $end
$var parameter 32 ;# UVM_SETSTR $end
$var parameter 32 <# UVM_END_FUNCS $end
$var parameter 32 =# UVM_STR_CRC_POLYNOMIAL $end
$var parameter 32 ># UVM_STDOUT $end
$var parameter 32 ?# UVM_LINE_WIDTH $end
$var parameter 32 @# UVM_NUM_LINES $end
$var parameter 32 A# UVM_SMALL_STRING $end
$var parameter 32 B# UVM_LARGE_STRING $end
$var reg 1 C# uvm_start_uvm_declarations $end
$var integer 32 D# uvm_global_random_seed $end
$var integer 32 E# UVM_UNBOUNDED_CONNECTIONS $end

$scope function uvm_hdl_check_path $end
$var integer 32 F# uvm_hdl_check_path $end
$upscope $end

$scope function uvm_hdl_deposit $end
$var integer 32 G# uvm_hdl_deposit $end
$var reg 1024 H# value [1023:0] $end
$upscope $end

$scope function uvm_hdl_force $end
$var integer 32 I# uvm_hdl_force $end
$var reg 1024 J# value [1023:0] $end
$upscope $end

$scope task uvm_hdl_force_time $end
$var reg 1024 K# value [1023:0] $end
$var time 64 L# force_time $end
$upscope $end

$scope function uvm_hdl_release_and_read $end
$var integer 32 M# uvm_hdl_release_and_read $end
$var reg 1024 N# value [1023:0] $end
$upscope $end

$scope function uvm_hdl_release $end
$var integer 32 O# uvm_hdl_release $end
$upscope $end

$scope function uvm_hdl_read $end
$var integer 32 P# uvm_hdl_read $end
$var reg 1024 Q# value [1023:0] $end
$upscope $end

$scope function uvm_dpi_get_next_arg_c $end
$upscope $end

$scope function uvm_dpi_get_tool_name_c $end
$upscope $end

$scope function uvm_dpi_get_tool_version_c $end
$upscope $end

$scope function uvm_dpi_get_next_arg $end
$upscope $end

$scope function uvm_dpi_get_tool_name $end
$upscope $end

$scope function uvm_dpi_get_tool_version $end
$upscope $end

$scope function uvm_dpi_regcomp $end
$upscope $end

$scope function uvm_dpi_regexec $end
$var integer 32 R# uvm_dpi_regexec $end
$upscope $end

$scope function uvm_dpi_regfree $end
$upscope $end

$scope function uvm_re_match $end
$var integer 32 S# uvm_re_match $end
$upscope $end

$scope function uvm_dump_re_cache $end
$upscope $end

$scope function uvm_glob_to_re $end
$upscope $end

$scope function uvm_revision_string $end
$upscope $end

$scope function uvm_radix_to_string $end
$var integer 32 T# radix $end
$upscope $end

$scope function uvm_instance_scope $end
$var reg 8 U# c [7:0] $end
$var integer 32 V# pos $end
$upscope $end

$scope function uvm_oneway_hash $end
$var integer 32 W# uvm_oneway_hash $end
$var integer 32 X# seed $end
$var reg 1 Y# msb $end
$var reg 8 Z# current_byte [7:0] $end
$var reg 32 [# crc1 [31:0] $end
$upscope $end

$scope function uvm_create_random_seed $end
$var integer 32 \# uvm_create_random_seed $end
$upscope $end

$scope function uvm_object_value_str $end
$upscope $end

$scope function uvm_leaf_scope $end
$var reg 8 ]# scope_separator [7:0] $end
$var reg 8 ^# bracket_match [7:0] $end
$var integer 32 _# pos $end
$var integer 32 `# bmatches $end
$upscope $end

$scope function uvm_vector_to_string $end
$var reg 4096 a# value [4095:0] $end
$var integer 32 b# size $end
$var integer 32 c# radix $end
$upscope $end

$scope function uvm_get_array_index_int $end
$var integer 32 d# uvm_get_array_index_int $end
$var reg 1 e# is_wildcard $end
$var integer 32 f# i $end
$upscope $end

$scope function uvm_get_array_index_string $end
$var reg 1 g# is_wildcard $end
$var integer 32 h# i $end
$upscope $end

$scope function uvm_is_array $end
$var reg 1 i# uvm_is_array $end
$upscope $end

$scope function uvm_has_wildcard $end
$upscope $end

$scope task run_test $end
$upscope $end

$scope function global_stop_request $end
$upscope $end

$scope function set_global_timeout $end
$var time 64 j# timeout $end
$var reg 1 k# overridable $end
$upscope $end

$scope function set_global_stop_timeout $end
$var time 64 l# timeout $end
$upscope $end

$scope function uvm_report_enabled $end
$var reg 1 m# uvm_report_enabled $end
$var integer 32 n# verbosity $end
$var reg 2 o# severity [1:0] $end
$upscope $end

$scope function uvm_report $end
$var reg 2 p# severity [1:0] $end
$var integer 32 q# verbosity $end
$var integer 32 r# line $end
$upscope $end

$scope function uvm_report_info $end
$var integer 32 s# verbosity $end
$var integer 32 t# line $end
$upscope $end

$scope function uvm_report_warning $end
$var integer 32 u# verbosity $end
$var integer 32 v# line $end
$upscope $end

$scope function uvm_report_error $end
$var integer 32 w# verbosity $end
$var integer 32 x# line $end
$upscope $end

$scope function uvm_report_fatal $end
$var integer 32 y# verbosity $end
$var integer 32 z# line $end
$upscope $end

$scope function uvm_string_to_severity $end
$var reg 1 {# uvm_string_to_severity $end
$var reg 2 |# sev [1:0] $end
$upscope $end

$scope function uvm_string_to_action $end
$upscope $end

$scope function set_config_int $end
$var reg 4096 }# value [4095:0] $end
$upscope $end

$scope function set_config_object $end
$var reg 1 ~# clone $end
$upscope $end

$scope function set_config_string $end
$upscope $end

$scope function uvm_is_match $end
$var reg 1 !$ uvm_is_match $end
$upscope $end

$scope function uvm_string_to_bits $end
$var reg 115200 "$ uvm_string_to_bits [115199:0] $end
$upscope $end

$scope function uvm_bits_to_string $end
$var reg 115200 #$ str [115199:0] $end
$upscope $end

$scope task uvm_wait_for_nba_region $end
$var integer 32 $$ nba $end
$var integer 32 %$ next_nba $end
$upscope $end

$scope function uvm_split_string $end
$upscope $end

$scope function uvm_hdl_concat2string $end
$upscope $end
$upscope $end

$scope begin fifo_top_sv_unit $end
$upscope $end

$scope begin std $end
$upscope $end

$scope begin questa_uvm_pkg $end
$upscope $end
$enddefinitions $end
#0
$dumpvars
1!
0"
b0 s"
b0 t"
b0 u"
xv"
0w"
0x"
1y"
0g#
0i#
0{#
b0 |#
bx "$
bx #$
bx H#
bx J#
bx K#
bx N#
bx Q#
1C#
0Y#
b1101101 Z#
b1111010011101001110011110000010 [#
bx a#
0e#
0k#
0m#
b0 o#
b0 p#
bx }#
0~#
0!$
b10000000 #
b10000000000 $
b100 %
b10 &
b10000000000 z"
b1000000000000 {"
b1111000000000000000000000000 |"
b10001 }"
b10101010101 ~"
b101010101 !#
b101010101 "#
b0 ##
b1 $#
b10 %#
b100 &#
b1000 '#
b10000 (#
b100000 )#
b1000000 *#
b10000000 +#
b100000000 ,#
b1000000000 -#
b10000000000000 .#
b100000000000000 /#
b1000000000000000 0#
b10000000000000000 1#
b100000000000000000 2#
b100000000000000001 3#
b100000000000000010 4#
b100000000000000011 5#
b100000000000000100 6#
b100000000000000101 7#
b100000000000000110 8#
b100000000000000110 9#
b100000000000000111 :#
b100000000000001000 ;#
b100000000000001000 <#
b100110000010001110110110110 =#
b1 >#
b1111000 ?#
b1111000 @#
b1110111111 A#
b11100000111111111 B#
b0 T#
b0 ]#
b0 ^#
b0 _#
b0 `#
b0 h#
b0 F#
b0 G#
b0 I#
b0 M#
b0 O#
b0 P#
b1 R#
b0 S#
b1101001011000001111100000011110 D#
b101110 U#
b111 V#
b11100110011110011000001110100011 W#
b1101001011000001111100000011110 X#
b1111111000011101010000100110110 \#
b0 b#
b0 c#
b0 d#
b0 f#
b111110100 n#
b0 q#
b0 r#
b11001000 s#
b11011001 t#
b0 u#
b0 v#
b0 w#
b0 x#
b0 y#
b0 z#
b101110 $$
b101110 %$
b11111111111111111111111111111111 E#
bx L#
bx j#
bx l#
1'
0(
xK!
xJ!
xI!
xH!
xG!
xF!
xE!
xD!
xC!
xB!
xA!
x@!
x?!
x>!
x=!
x<!
x;!
x:!
x9!
x8!
x7!
x6!
x5!
x4!
x3!
x2!
x1!
x0!
x/!
x.!
x-!
x,!
x+!
x*!
x)!
x(!
x'!
x&!
x%!
x$!
x#!
x"!
x!!
x~
x}
x|
x{
xz
xy
xx
xw
xv
xu
xt
xs
xr
xq
xp
xo
xn
xm
xl
xk
xj
xi
xh
xg
xf
xe
xd
xc
xb
xa
x`
x_
x^
x]
x\
x[
xZ
xY
xX
xW
xV
xU
xT
xS
xR
xQ
xP
xO
xN
xM
xL
xK
xJ
xI
xH
xG
xF
xE
xD
xC
xB
xA
x@
x?
x>
x=
x<
x;
x:
x9
x8
x7
x6
x5
x4
x3
x2
x1
x0
x/
x.
x-
x,
x+
x*
x)
xN!
0M!
1r"
0p"
0o"
0n"
0m"
0l"
0k"
0j"
0i"
0h"
0g"
0f"
0e"
0d"
0c"
0b"
0a"
0`"
0_"
0^"
0]"
0\"
0["
0Z"
0Y"
0X"
0W"
0V"
0U"
0T"
0S"
0R"
0Q"
0P"
0O"
0N"
0M"
0L"
0K"
0J"
0I"
0H"
0G"
0F"
0E"
0D"
0C"
0B"
0A"
0@"
0?"
0>"
0="
0<"
0;"
0:"
09"
08"
07"
06"
05"
04"
03"
02"
01"
00"
0/"
0."
0-"
0,"
0+"
0*"
0)"
0("
0'"
0&"
0%"
0$"
0#"
0""
0!"
0~!
0}!
0|!
0{!
0z!
0y!
0x!
0w!
0v!
0u!
0t!
0s!
0r!
0q!
0p!
0o!
0n!
0m!
0l!
0k!
0j!
0i!
0h!
0g!
0f!
0e!
0d!
0c!
0b!
0a!
0`!
0_!
0^!
0]!
0\!
0[!
0Z!
0Y!
0X!
0W!
0V!
0U!
0T!
0S!
0R!
0Q!
0P!
0O!
0L!
1q"
$end
#1
1)
0N!
1K!
0J!
0I!
1H!
1G!
1F!
0E!
0D!
0C!
0B!
1A!
1@!
0?!
0>!
1=!
0<!
0;!
1:!
09!
08!
17!
16!
15!
04!
03!
12!
01!
10!
1/!
1.!
0-!
0,!
0+!
0*!
0)!
1(!
1'!
0&!
0%!
1$!
1#!
0"!
1!!
0~
0}
1|
0{
0z
0y
0x
1w
0v
1u
0t
1s
0r
0q
1p
0o
1n
1m
0l
1k
1j
0i
0h
0g
1f
0e
1d
1c
0b
1a
1`
1_
0^
0]
0\
1[
0Z
1Y
0X
0W
1V
0U
0T
1S
1R
1Q
0P
1O
0N
1M
1L
0K
0J
0I
0H
0G
1F
0E
1D
1C
0B
0A
0@
1?
1>
0=
1<
0;
0:
09
18
07
06
05
04
13
12
01
00
1/
1.
1-
0,
1+
1*
1v"
#5
0!
1"
1(
0'
#10
1!
1'
b1 s"
b1 u"
0y"
1p"
1m"
1l"
1k"
1f"
1e"
1b"
1_"
1\"
1["
1Z"
1W"
1U"
1T"
1S"
1M"
1L"
1I"
1H"
1F"
1C"
1>"
1<"
1:"
17"
15"
14"
12"
11"
1-"
1+"
1*"
1("
1'"
1&"
1""
1~!
1{!
1x!
1w!
1v!
1t!
1r!
1q!
1k!
1i!
1h!
1d!
1c!
1a!
1]!
1X!
1W!
1T!
1S!
1R!
1P!
1O!
0r"
b101111 %$
b11100110011110011000001111100101 \#
b101111 $$
#11
0)
0v"
#15
0!
0'
#20
1!
1'
#21
1)
1J!
1I!
0H!
0G!
0F!
1E!
1C!
1B!
0A!
0@!
1?!
1>!
1;!
0:!
19!
05!
14!
13!
02!
1+!
1*!
0(!
0'!
1&!
0#!
0!!
1~
1}
0|
1y
1x
0w
1t
0s
1r
1o
0n
0m
1i
1e
0c
0`
0_
0Y
1X
1T
0S
0R
0Q
1N
0M
0L
1J
1I
1H
1G
0F
0D
0?
0>
1=
0<
1;
1:
19
08
17
16
15
14
11
10
0/
0.
0-
0+
0*
1v"
#25
0!
0'
#30
1!
1'
b10 s"
b10 u"
0q"
b110000 %$
b11100110011110011000001111110001 \#
b110000 $$
#31
0)
0v"
#35
0!
0'
#40
1!
1'
#41
1)
0K!
0J!
0I!
1H!
0E!
1D!
0C!
1@!
0?!
0>!
0;!
18!
06!
04!
11!
00!
0/!
0.!
1)!
1(!
1%!
0$!
1#!
0}
1z
0x
0t
0r
1n
1m
0i
1h
0f
0e
1b
1_
1^
1Y
1U
1S
1Q
1P
0N
1M
1K
0J
0H
1F
1E
1B
1A
0=
1<
09
06
04
01
1/
1.
1,
1*
1v"
#45
0!
0'
#50
1!
1'
b11 s"
b11 u"
b110001 %$
b11100110011110011000001111111110 \#
b110001 $$
#51
0)
0v"
#55
0!
0'
#60
1!
1'
#61
1)
1K!
1J!
1I!
1G!
1F!
0D!
1C!
1A!
1?!
1>!
1;!
1:!
16!
14!
03!
10!
0+!
0*!
0)!
0(!
1'!
0&!
0%!
1!!
0~
1}
1x
1v
1t
1s
1r
1q
1l
1i
1e
0d
0a
1`
0^
1]
1\
1Z
0Y
0S
0O
0M
1L
1J
0I
0G
0F
1D
0A
1?
1>
0:
18
07
05
02
0/
0.
0,
1+
1v"
#65
0!
0'
#70
1!
1'
b100 s"
b100 u"
b110010 %$
b11100110011110011000010000001100 \#
b110010 $$
#71
0)
0v"
#75
0!
0'
#80
1!
1'
#81
1)
0J!
0I!
0H!
0G!
1D!
0C!
0B!
0A!
1<!
0;!
0:!
08!
07!
06!
12!
00!
1.!
1-!
1,!
1(!
1&!
0!!
1{
0u
0s
0r
0m
0l
0k
0i
1g
1a
0_
1^
0]
0[
0U
1S
1R
0Q
0K
1I
1H
1G
0E
0D
0C
1A
0>
1=
0<
0;
08
17
15
12
11
1.
1-
1v"
#85
0!
0'
#90
1!
1'
b101 s"
b101 u"
1L!
b110011 %$
b11100110011110011000010000011011 \#
b110011 $$
#91
0)
0v"
#95
0!
0'
#100
1!
1'
#101
1)
0K!
1I!
1H!
0D!
1B!
1A!
0@!
0>!
1;!
1:!
04!
13!
02!
01!
10!
0-!
0,!
1)!
0'!
1%!
1$!
1~
0{
0t
1s
0q
1m
1l
1k
0j
0e
0b
0a
1_
0^
0X
1W
0V
0S
0R
0P
1O
1N
1M
0L
1K
0I
0H
0G
1E
0?
1>
0=
19
18
16
05
14
02
0.
0-
1,
0*
1v"
#105
0!
0'
#110
1!
1'
b110 s"
b110 u"
b110100 %$
b11100110011110011000010000101011 \#
b110100 $$
#111
0)
0v"
#115
0!
0'
#120
1!
1'
#121
1)
1K!
1J!
0I!
0H!
0F!
0?!
18!
17!
14!
03!
00!
1/!
0.!
1-!
0)!
0%!
0$!
1"!
1|
1{
0x
0v
1t
0s
1q
0o
0m
1j
0h
1e
1d
1b
1a
0`
0_
0\
1[
0Z
0W
1S
1P
0O
0N
1L
0K
1G
1F
1D
0>
1=
1:
08
07
15
1/
1-
0+
1v"
#125
0!
0'
#130
1!
1'
b111 s"
b111 u"
b110101 %$
b11100110011110011000010000111100 \#
b110101 $$
#131
0)
0v"
#135
0!
0'
#140
1!
1'
#141
1)
1F!
1C!
0A!
0=!
0;!
09!
07!
16!
10!
0/!
1'!
1%!
1$!
0#!
0"!
1!!
0~
0}
0z
0y
1u
0t
1s
1r
0p
0l
0k
0j
1i
1h
0g
0e
0b
1`
1^
1]
0[
1Z
1Y
1X
1V
1U
0T
1R
0P
1O
0L
1I
0G
0F
1C
0B
0A
1?
0=
1<
0:
18
17
05
04
12
00
1.
0,
1+
1*
1v"
#145
0!
0'
#150
1!
1'
b1000 s"
b1000 u"
b110110 %$
b11100110011110011000010001001110 \#
b110110 $$
#151
0)
0v"
#155
0!
0'
#160
1!
1'
#161
1)
0K!
0J!
1I!
1H!
1G!
0F!
1E!
0C!
0B!
1@!
1=!
1;!
17!
06!
04!
13!
12!
1/!
1.!
0-!
1,!
1+!
1*!
0'!
0&!
0%!
0!!
1~
1}
0|
1z
0u
1t
0s
0r
0q
1o
0n
0i
1e
0d
1c
1b
0`
1_
0^
1[
0Y
1W
0V
0R
1Q
1N
0J
0I
1H
1G
1F
1B
1A
1@
0<
09
08
06
14
0+
1v"
#165
0!
0'
#170
1!
1'
b1001 s"
b1001 u"
b110111 %$
b11100110011110011000010001100001 \#
b110111 $$
#171
0)
0v"
#175
0!
0'
#180
1!
1'
#181
1)
0H!
0G!
1F!
1D!
1A!
1?!
0;!
0:!
19!
08!
16!
14!
03!
11!
00!
0/!
0.!
1-!
0,!
1#!
1"!
1!!
0~
1|
1x
1v
0t
1r
1l
1j
1i
1g
1f
0e
1d
0a
1`
1\
0X
1V
1T
1R
0N
0M
1K
1J
1I
0H
0E
1>
18
03
02
01
10
0.
1+
1v"
#185
0!
0'
#190
1!
1'
b1010 s"
b1010 u"
b111000 %$
b11100110011110011000010001110101 \#
b111000 $$
#191
0)
0v"
#195
0!
0'
#200
1!
1'
#201
1)
1K!
1J!
0I!
1G!
0E!
0D!
1C!
1B!
0A!
0<!
09!
15!
04!
02!
10!
1/!
1.!
1,!
0+!
1)!
1%!
0#!
0!!
0x
1w
1u
1t
1s
0r
1q
1p
0o
1n
1m
1k
0j
0h
0g
0f
0d
0b
0_
1^
0]
0Z
1X
0U
0T
0S
1P
1M
1L
1E
0D
0C
0B
1=
08
07
16
00
1.
0+
1v"
#205
0!
0'
#210
1!
1'
b1011 s"
b1011 u"
b111001 %$
b11100110011110011000010010001010 \#
b111001 $$
#211
0)
0v"
#215
0!
0'
#220
1!
1'
#221
1)
1I!
1H!
0G!
0F!
0C!
1A!
0@!
1>!
1:!
06!
05!
13!
12!
01!
00!
0.!
0-!
0,!
0*!
0)!
0%!
1!!
0z
1y
0s
1r
0q
0p
1o
0n
0m
0k
1g
1f
1e
1d
1a
0`
1_
1]
1Z
0X
0W
1U
1T
0Q
0O
0M
0K
0J
0I
1D
1B
0=
1<
1;
06
15
10
0/
0-
0*
1v"
